<?xml version="1.0" encoding="UTF-8"?>
<svg width="20px" height="20px" viewBox="0 0 20 20" version="1.1" xmlns="http://www.w3.org/2000/svg" xmlns:xlink="http://www.w3.org/1999/xlink">
    <!-- Generator: sketchtool 63.1 (101010) - https://sketch.com -->
    <title>38480C59-11FC-498D-BDBD-DA2A59DDC861</title>
    <desc>Created with sketchtool.</desc>
    <g id="Main" stroke="none" stroke-width="1" fill="none" fill-rule="evenodd" stroke-linecap="round">
        <g id="Camera-View-1" transform="translate(-134.000000, -708.000000)" stroke="#EF4337" stroke-width="1.5">
            <g id="Group-8" transform="translate(134.000000, 708.000000)">
                <g id="icons/calendar">
                    <g id="calendar" transform="translate(1.666667, 0.833333)">
                        <rect id="Rectangle" x="0" y="1.83333333" width="16.5" height="16.5" rx="2"></rect>
                        <line x1="11.9166667" y1="0" x2="11.9166667" y2="3.66666667" id="Path"></line>
                        <line x1="4.58333333" y1="0" x2="4.58333333" y2="3.66666667" id="Path"></line>
                        <line x1="0" y1="7.33333333" x2="16.5" y2="7.33333333" id="Path"></line>
                    </g>
                </g>
            </g>
        </g>
    </g>
</svg>